<?xml version="1.0" standalone="no"?>
<!DOCTYPE svg PUBLIC "-//W3C//DTD SVG 1.1//EN" "http://www.w3.org/Graphics/SVG/1.1/DTD/svg11.dtd">
<svg xmlns="http://www.w3.org/2000/svg">
<metadata>Generated by Fontastic.me</metadata>
<defs>
<font id="untitled-font-2" horiz-adv-x="512">
<font-face font-family="untitled-font-2" units-per-em="512" ascent="480" descent="-32"/>
<missing-glyph horiz-adv-x="512" />

<glyph unicode="&#97;" d="M287 116l-140 0 0 256 140 0 0-94 27 0 0 122-193 0 0-313 193 0 0 70-27 0 0-41z m134 107c-6 6-70 68-70 68 0 0-9 9-9-3l0-29-133 0c0 0-4 0-4-5l0-72c0-8 5-6 5-6l134 0 0-32c0-10 8-1 8-1l69 70c0 0 5 5 0 10z"/>
<glyph unicode="&#98;" d="M199 271l32 33-57 58 36 36-105 0 0-105 36 36z m181-115l-58 58-33-33 58-58-37-36 105 0 1 105z m-58 116l57 57 36-36 0 105-105 0 37-36-58-58z m-123-58l-58-58-36 37 0-106 105 0-36 36 57 58z"/>
<glyph unicode="&#99;" d="M387 284l-9 21c0 0 20 46 19 48l-28 27c-2 2-48-20-48-20l-22 9c0 0-19 47-21 47l-39 0c-3 0-20-47-20-47l-22-9c0 0-47 21-49 19l-28-27c-1-2 20-48 20-48l-9-21c0 0-48-18-48-21l0-38c0-2 48-20 48-20l9-21c0 0-20-46-18-48l27-27c2-2 48 20 48 20l22-9c0 0 19-47 21-47l39 0c3 0 20 47 20 47l22 9c0 0 47-20 49-19l28 27c2 2-20 48-20 48l9 21c0 0 48 18 48 21l0 38c0 2-48 20-48 20z m-71-40c0-30-26-55-57-55-31 0-56 25-56 55 0 31 25 55 56 55 31 0 57-24 57-55z"/>
</font></defs></svg>
